{
  "cli": {
    "version": ">= 0.44.1"
  },
  "build": {
    "development": {
      "developmentClient": true,
      "distribution": "internal"
    },
    "preview": {
      "android": {
        "buildType": "apk"
      }
    },
    "production": {}
  },
  "submit": {
    "production": {}
  }
}
