{
  "project_info": {
    "project_number": "96157621011",
    "project_id": "meownoo-58a0b",
    "storage_bucket": "meownoo-58a0b.appspot.com"
  },
  "client": [
    {
      "client_info": {
        "mobilesdk_app_id": "1:96157621011:android:755d325c9612cac847d8e6",
        "android_client_info": {
          "package_name": "com.vm6bj6xup6.frontcat"
        }
      },
      "oauth_client": [
        {
          "client_id": "96157621011-hrlr6il3mrkubp5snv6ukf4n3m2cgp49.apps.googleusercontent.com",
          "client_type": 3
        }
      ],
      "api_key": [
        {
          "current_key": "AIzaSyAgM8rmvPYwm_ynJWtyVXxAg5jCqWePe9A"
        }
      ],
      "services": {
        "appinvite_service": {
          "other_platform_oauth_client": [
            {
              "client_id": "96157621011-hrlr6il3mrkubp5snv6ukf4n3m2cgp49.apps.googleusercontent.com",
              "client_type": 3
            }
          ]
        }
      }
    }
  ],
  "configuration_version": "1"
}
